<svg xmlns="http://www.w3.org/2000/svg" width="9.888" height="21.745" viewBox="0 0 9.888 21.745">
  <path id="Path_118" data-name="Path 118" d="M7083.71,5632.589l9.079-10.467a.4.4,0,0,0,0-.53l-9.079-10.467a.4.4,0,0,0-.71.265v20.934A.4.4,0,0,0,7083.71,5632.589Z" transform="translate(-7083 -5610.984)" fill="#656b8d"/>
</svg>
