<svg xmlns="http://www.w3.org/2000/svg" width="23.751" height="52.232" viewBox="0 0 23.751 52.232">
  <path id="Path_226" data-name="Path 226" d="M3739.294,5092.278l-21.807-25.143a.97.97,0,0,1,0-1.273l21.807-25.143a.972.972,0,0,1,1.706.637v50.285A.972.972,0,0,1,3739.294,5092.278Z" transform="translate(-3717.249 -5040.382)" fill="#fff"/>
</svg>
