<svg xmlns="http://www.w3.org/2000/svg" width="71.564" height="50" viewBox="0 0 71.564 50">
  <g id="Group_115" data-name="Group 115" transform="translate(-1100.728 -6204.695)">
    <path id="Path_362" data-name="Path 362" d="M1114.762,6226.6l1.54.187c.079-.463.162-.894.223-1.328q1.313-9.293,2.618-18.587a2.612,2.612,0,0,1,.886-1.876c.694-.552,2.928-.32,3.346.572a2.881,2.881,0,0,1,.323,1.5c-.9,6.625-1.845,13.244-2.779,19.865-.014.1-.02.2-.038.386l1.146.161c.185-1.286.367-2.532.543-3.778q.939-6.651,1.879-13.3a1.886,1.886,0,0,1,2.283-1.742c1.625.218,2.3.924,2.112,2.32-.7,5.1-1.433,10.206-2.152,15.309-.076.542-.147,1.085-.228,1.687l1.509.23c.12-.8.243-1.578.353-2.359q.753-5.344,1.5-10.691a1.9,1.9,0,0,1,2.327-1.762,3.812,3.812,0,0,1,1.388.414,1.819,1.819,0,0,1,.793,1.979c-.914,6.438-1.858,12.872-2.724,19.317-.577,4.295-1.039,8.606-1.555,12.909-.1.873-.18,1.752-.341,2.615a5,5,0,0,1-5.586,4.032c-3.959-.485-7.916-.977-11.881-1.4a5.453,5.453,0,0,1-4.5-2.958c-1.784-3.241-3.537-6.5-5.442-9.675a9.921,9.921,0,0,1-1.472-5.571c.067-2.718-.065-5.44-.106-8.161a2.179,2.179,0,0,1,2.268-2.4c.612-.029,1.226-.032,1.84-.046a2.35,2.35,0,0,1,2.544,2.489c-.037,2.924.114,5.85.1,8.774a4.891,4.891,0,0,0,.987,2.612c.173-1.432.328-2.7.48-3.97a23.44,23.44,0,0,1,.458-3.585,76.714,76.714,0,0,0,1.546-9.364c.606-3.92,1.13-7.852,1.681-11.781a1.931,1.931,0,0,1,2.343-1.887c1.638.21,2.292.963,2.083,2.463q-1.119,8.021-2.26,16.036C1114.78,6226.325,1114.776,6226.425,1114.762,6226.6Z" />
    <path id="Path_363" data-name="Path 363" d="M1158.258,6226.6l-1.541.187c-.078-.463-.162-.894-.223-1.328q-1.312-9.293-2.618-18.587a2.612,2.612,0,0,0-.886-1.876c-.694-.552-2.928-.32-3.345.572a2.872,2.872,0,0,0-.324,1.5c.9,6.625,1.845,13.244,2.779,19.865.014.1.02.2.038.386l-1.146.161c-.185-1.286-.367-2.532-.543-3.778q-.939-6.651-1.879-13.3a1.886,1.886,0,0,0-2.282-1.742c-1.626.218-2.3.924-2.113,2.32.7,5.1,1.433,10.206,2.152,15.309.076.542.147,1.085.228,1.687l-1.509.23c-.12-.8-.243-1.578-.353-2.359q-.753-5.344-1.5-10.691a1.9,1.9,0,0,0-2.327-1.762,3.813,3.813,0,0,0-1.388.414,1.819,1.819,0,0,0-.793,1.979c.914,6.438,1.858,12.872,2.724,19.317.577,4.295,1.039,8.606,1.555,12.909.1.873.18,1.752.341,2.615a5,5,0,0,0,5.586,4.032c3.959-.485,7.916-.977,11.881-1.4a5.453,5.453,0,0,0,4.5-2.958c1.784-3.241,3.537-6.5,5.442-9.675a9.923,9.923,0,0,0,1.472-5.571c-.067-2.718.065-5.44.106-8.161a2.179,2.179,0,0,0-2.268-2.4c-.612-.029-1.226-.032-1.84-.046a2.349,2.349,0,0,0-2.543,2.489c.036,2.924-.115,5.85-.1,8.774a4.891,4.891,0,0,1-.987,2.612c-.173-1.432-.327-2.7-.48-3.97a23.44,23.44,0,0,0-.458-3.585,76.69,76.69,0,0,1-1.546-9.364c-.606-3.92-1.129-7.852-1.681-11.781a1.931,1.931,0,0,0-2.343-1.887c-1.638.21-2.292.963-2.083,2.463q1.119,8.021,2.26,16.036C1158.239,6226.325,1158.243,6226.425,1158.258,6226.6Z" />
  </g>
</svg>
