<svg xmlns="http://www.w3.org/2000/svg" width="32.849" height="32.849" viewBox="0 0 32.849 32.849">
  <path id="Path_87" data-name="Path 87" d="M8004.209,6085.234a5.275,5.275,0,0,0-5.02-5.02,5.308,5.308,0,0,0-3.467,1.868l-1.583,1.583L7974.2,6103.6a.121.121,0,0,0-.014.018l-.023.031a.451.451,0,0,0-.062.112.147.147,0,0,1-.01.019l-2.71,8.71a.456.456,0,0,0,.548.548l8.71-2.71a.143.143,0,0,1,.019-.01.44.44,0,0,0,.113-.062l.03-.023a.214.214,0,0,0,.018-.014l19.937-19.937,1.583-1.583A5.308,5.308,0,0,0,8004.209,6085.234Zm-30.7,23.382,1.307-4.2,1.842.353.428,2.226a.435.435,0,0,0,.347.347l2.226.428.353,1.842-4.2,1.307Zm26.944-19.26-5.382-5.382.978-.979,5.382,5.383Z" transform="translate(-7971.366 -6080.208)" fill="#75aecc"/>
</svg>
