<svg xmlns="http://www.w3.org/2000/svg" width="151.441" height="65.782" viewBox="0 0 151.441 65.782">
  <g id="Group_94" data-name="Group 94" transform="translate(-2365.617 -5262.873)">
    <g id="Group_93" data-name="Group 93" transform="translate(1892.858 5262.873)">
      <path id="Path_252" data-name="Path 252" d="M2371.823,5326.3a8.5,8.5,0,1,0-8.5-8.5,8.5,8.5,0,0,0,8.5,8.5" transform="translate(-1865.893 -5262.873)" fill="#c5e2ed"/>
      <path id="Path_260" data-name="Path 260" d="M2351.514,5286.488a4.788,4.788,0,0,1-4.789-4.789v-14.037a4.789,4.789,0,1,1,9.578,0V5281.7A4.787,4.787,0,0,1,2351.514,5286.488Z" transform="translate(-1867.176 -5262.873)" fill="#c5e2ed"/>
      <path id="Path_261" data-name="Path 261" d="M2358.533,5278.926H2344.5a4.789,4.789,0,1,1,0-9.578h14.037a4.789,4.789,0,1,1,0,9.578Z" transform="translate(-1866.948 -5262.873)" fill="#c5e2ed"/>
      <path id="Path_262" data-name="Path 262" d="M2475.641,5294.989a8.5,8.5,0,1,0-8.5-8.5,8.5,8.5,0,0,0,8.5,8.5" transform="translate(-1859.942 -5262.873)" fill="#c5e2ed"/>
      <path id="Path_263" data-name="Path 263" d="M2405.351,5298.3a8.5,8.5,0,1,0-8.5-8.5,8.5,8.5,0,0,0,8.5,8.5" transform="translate(-1859.942 -5262.873)" fill="#c5e2ed"/>
      <path id="Path_264" data-name="Path 264" d="M2447.406,5328.655a4.787,4.787,0,0,1-4.789-4.789v-14.037a4.789,4.789,0,0,1,9.578,0v14.037A4.787,4.787,0,0,1,2447.406,5328.655Z" transform="translate(-1859.942 -5262.873)" fill="#c5e2ed"/>
      <path id="Path_265" data-name="Path 265" d="M2454.426,5321.093h-14.039a4.789,4.789,0,1,1,0-9.578h14.039a4.789,4.789,0,1,1,0,9.578Z" transform="translate(-1859.942 -5262.873)" fill="#c5e2ed"/>
    </g>
  </g>
</svg>
