<svg xmlns="http://www.w3.org/2000/svg" width="62.827" height="50" viewBox="0 0 62.827 50">
  <g id="Group_110" data-name="Group 110" transform="translate(-1253.55 -6204.694)">
    <path id="Path_356" data-name="Path 356" d="M1315.873,6228.991c-.163-.152-.339-.29-.511-.432-2.52-2.1-5.036-4.2-7.567-6.277a1,1,0,0,1-.392-.873q.018-7.544.006-15.085c0-.994-.418-1.513-1.339-1.523q-3.654-.04-7.31,0a1.219,1.219,0,0,0-1.32,1.326c-.019.376-.006.754-.006,1.132,0,2.075,0,4.15,0,6.385-.248-.206-.389-.321-.528-.437-2.936-2.453-5.861-4.92-8.82-7.346a5.152,5.152,0,0,0-1.738-.954,5.073,5.073,0,0,0-4.976,1.3c-4.757,4.02-9.559,7.986-14.345,11.972q-6.366,5.3-12.734,10.609c-.927.773-.976,1.389-.2,2.317.658.792,1.316,1.583,1.983,2.367a1.333,1.333,0,0,0,2.141.183l4.3-3.583c.007,6.176,0,16.162.005,21.754a2.586,2.586,0,0,0,2.869,2.863q7,0,14.005,0h.572v-14.929h10v.685q0,6.847,0,13.7c0,.3-.039.558.427.556,4.805-.015,9.611,0,14.416-.016a2.512,2.512,0,0,0,2.6-2.654c.006-5.662,0-15.677.007-21.955q2.167,1.808,4.335,3.613a1.271,1.271,0,0,0,1.958-.058c.809-.91,1.59-1.847,2.347-2.8A1.244,1.244,0,0,0,1315.873,6228.991Z" />
  </g>
</svg>
