<svg xmlns="http://www.w3.org/2000/svg" width="83.254" height="140.997" viewBox="0 0 83.254 140.997">
  <g id="Group_56" data-name="Group 56" transform="translate(-6472.746 -4997.731)">
    <g id="Group_55" data-name="Group 55">
      <path id="Path_137" data-name="Path 137" d="M6483.786,4997.731h1.245c.532.336,1.115.629,1.067,1.544-.579-.081-1.516-.882-2.192-.3a1.314,1.314,0,0,0,.231,1.839c.917.384,1.5-.6,2.2-.468-.055,1.027-.914,1.253-1.542,1.715.946,4.264,1.736,8.853,2.61,13.239a38.9,38.9,0,0,1,.892,4.392c.2,2.436,0,4.936,0,7.413v7.478a18.962,18.962,0,0,1,2.431.056c-.028,2.6-.815,4.446-2.373,5.521v11.157a18.3,18.3,0,0,1,2.373.059,6.208,6.208,0,0,1-1.481,4.509c-.374.422-.916.747-1.01,1.064a10.078,10.078,0,0,0,0,2.022v14.3A41.791,41.791,0,0,0,6481,5083.3c-.119.213-.167.665-.534.651-.277-8.907-.042-18.274-.12-27.294-1.4-1.14-2.953-2.985-2.377-5.518h2.314V5039.8a5.645,5.645,0,0,1-2.488-5.279h2.488v-7.36c0-2.477-.233-5,0-7.419.144-1.467.554-3.01.834-4.506.827-4.468,1.911-8.986,2.671-13.352a2.323,2.323,0,0,1-1.365-3.209A2.6,2.6,0,0,1,6483.786,4997.731Z" fill="#75aecc"/>
      <path id="Path_138" data-name="Path 138" d="M6544.606,4997.731h.948a1.544,1.544,0,0,1,1.195,1.544c-.739-.195-1.277-.838-2.085-.36a1.241,1.241,0,0,0,.12,1.9c.892.378,1.527-.507,2.194-.468-.088.973-.866,1.266-1.544,1.659.9,4.26,1.749,8.812,2.617,13.175.288,1.454.744,2.954.89,4.389.236,2.468,0,5.024,0,7.536v7.534a19.255,19.255,0,0,1,2.373.062,6.473,6.473,0,0,1-1.483,4.747c-.332.335-.737.445-.832.771a12.191,12.191,0,0,0,0,2.73v8.368h2.372a6.745,6.745,0,0,1-1.007,4.038c-.323.493-1.35,1.127-1.485,1.594a17.1,17.1,0,0,0,0,3.387c0,7.933.1,16.43-.116,23.851-.51-.3-.641-.947-.891-1.419a39.657,39.657,0,0,0-5.64-8.369c-.314-.333-1.1-.876-1.189-1.185a9.8,9.8,0,0,1,0-2.019v-12.4a9.842,9.842,0,0,0,0-2.073c-.084-.276-.548-.547-.893-.9a5.116,5.116,0,0,1-1.532-4.686h2.37v-11.273a6.067,6.067,0,0,1-2.552-5.281h2.552v-7.418c0-2.5-.209-5.022,0-7.473.122-1.448.546-2.971.827-4.452.859-4.454,1.838-9,2.673-13.3a2.425,2.425,0,0,1-1.485-3.023A2.178,2.178,0,0,1,6544.606,4997.731Z" fill="#75aecc"/>
      <path id="Path_139" data-name="Path 139" d="M6514.46,5056.419c-.175.427-.579.394-.649.828a.767.767,0,0,0,.592.95c.489.09.846-.313,1.244-.293.016.453-.687.9-.473,1.663.082.277.262.285.473.524v1.727c1.448.371,3.4.243,4.216,1.247-.3.462-1.007.44-1.6.535-2.679.418-6.856.509-9.142-.416.217-.688,1.119-.8,1.842-.95.758-.16,1.625-.258,2.377-.356.078-.627-.114-1.045,0-1.663.077-.453.547-.86.473-1.3-.064-.374-.569-.464-.71-.894C6512.8,5057.142,6513.416,5056.1,6514.46,5056.419Z" fill="#75aecc"/>
      <path id="Path_140" data-name="Path 140" d="M6514.941,5064.609c5.256.44,9.345,3.608,11.985,6.757a36.174,36.174,0,0,1,6.585,12.112h1.182c-1.216-8.451-6.335-14.007-12.157-18.1-.12-.085-.529-.127-.421-.414a1.958,1.958,0,0,1,1.072.176,40.881,40.881,0,0,1,14.358,7.535,30.7,30.7,0,0,1,9.729,13.646h-65.566a28.152,28.152,0,0,1,9.43-12.988,47.109,47.109,0,0,1,14.187-8.076c-.04.446-.5.705-.775.953-4.66,4.371-8.79,9.657-10.619,16.969a8.417,8.417,0,0,0,1.661.06,39.722,39.722,0,0,1,6.23-11.926c2.658-3.249,6.129-6.151,11.634-6.526v18.692a7.356,7.356,0,0,0,1.425.061v-18.753C6514.875,5064.7,6514.865,5064.615,6514.941,5064.609Z" fill="#75aecc"/>
      <path id="Path_141" data-name="Path 141" d="M6491.381,5088.461h4.507c.142,3.244.023,6.744.061,10.09,1.9.137,4.058.02,6.052.055v3.8h-10.684v-13.77C6491.317,5088.558,6491.314,5088.473,6491.381,5088.461Z" fill="#75aecc"/>
      <path id="Path_142" data-name="Path 142" d="M6508.588,5088.518c1.54-.136,3.342-.019,4.986-.057,1.731,4.679,3.567,9.251,5.282,13.947h-2.911a12.138,12.138,0,0,1-2.844,0c-.349-.138-.3-.648-.6-.778h-4.392c-.285.139-.289.546-.475.778h-2.673c-.779,0-2.114.234-2.551-.124-.321-.257.511-2.064.715-2.612.966-2.609,2.092-5.639,2.966-8.006h3.617C6509.387,5090.566,6508.989,5089.546,6508.588,5088.518Zm.531,9.2a16.232,16.232,0,0,0,2.2-.061c-.413-1.07-.7-2.271-1.131-3.322C6509.816,5095.447,6509.419,5096.534,6509.119,5097.719Z" fill="#75aecc"/>
      <path id="Path_143" data-name="Path 143" d="M6519.092,5088.461h11.273c1.547,0,3.5-.192,4.514.292a3.947,3.947,0,0,1,2.074,2.913c.366,2.886-.275,7.524,0,10.618h-4.924v-7.3c0-.688.111-1.945-.183-2.189-.31-.271-1.58-.122-2.076-.122h-6.411v9.611c-1.362-.039-2.884.087-4.147-.055a10.769,10.769,0,0,1-.179-3.268v-10.323C6519.027,5088.558,6519.027,5088.473,6519.092,5088.461Z" fill="#75aecc"/>
      <path id="Path_144" data-name="Path 144" d="M6556,5088.461v3.735c-3.02-.115-5.473-.173-6.349,1.781a4.371,4.371,0,0,0-.18,2.729c.711,2.313,3.442,2.227,6.471,2.2-.038,1.156.079,2.494-.063,3.554-3.4.059-6.178.259-8.247-.832-2.015-1.057-3.144-3.124-3.085-6.169C6544.67,5089.274,6549.177,5087.924,6556,5088.461Z" fill="#75aecc"/>
      <path id="Path_145" data-name="Path 145" d="M6472.746,5088.579c2.2.081,4.682-.156,6.644.119-.065.292.168.873-.174.89-.336.178-.5.2-.593.536a13.065,13.065,0,0,0,0,2.671v5.335a15.631,15.631,0,0,0,0,2.676c.15.653,1.115.743.767,1.536-2.093.146-4.446.029-6.644.066v-1.068c.461.065.588-.209.773-.415.089-2.964.077-6.727-.055-9.85-.039-.791.127-1.42-.718-1.487Z" fill="#75aecc"/>
      <path id="Path_146" data-name="Path 146" d="M6481.055,5088.579h4.392c-.1,1.684.759,2.412,1.6,3.444,1.579,1.928,3.749,3.634,3.675,6.938a3.57,3.57,0,0,1-3.141,3.447c-2.061.221-4.869-.124-7.24-.066v-3.552c1.055-.473,4.7.585,5.219-.476.63-1.295-1.523-3.224-2.019-3.8-1.423-1.656-2.778-2.848-2.607-5.759A.164.164,0,0,1,6481.055,5088.579Z" fill="#75aecc"/>
      <path id="Path_147" data-name="Path 147" d="M6544.427,5088.579v.83c-.132.32-.643.265-.771.595v8.188a13.274,13.274,0,0,0,0,2.668c.144.542,1.128.689.771,1.548h-6.641v-.888c.12-.292.614-.215.707-.539v-8.186c0-1.289.384-3.126-.707-3.268.037-.295-.08-.75.058-.948Z" fill="#75aecc"/>
      <path id="Path_148" data-name="Path 148" d="M6525.682,5093.15h4.389v9.371h-4.453v-9.2C6525.614,5093.238,6525.608,5093.153,6525.682,5093.15Z" fill="#75aecc"/>
      <path id="Path_149" data-name="Path 149" d="M6478.026,5104.479h72.4c-1.116,10.458-5.239,18.117-11.154,24.037a34.648,34.648,0,0,1-17.328,9.141,33.185,33.185,0,0,1-7.712,1.066,40.923,40.923,0,0,1-14.421-3.206c-10.151-4.217-17.05-12.5-20.476-23.618a32.052,32.052,0,0,1-1.478-7.236A.329.329,0,0,1,6478.026,5104.479Zm46.4,30.026c12.8-4.3,20.518-13.7,23.736-27.589H6536.6a5.984,5.984,0,0,1-1.066,3.316,8.565,8.565,0,0,1-1.843-1.3,8.236,8.236,0,0,0,.477-2.017H6515.35a26.543,26.543,0,0,1-.055,2.848,16.739,16.739,0,0,1-2.255-.061V5106.8c-6.14-.132-12.515-.028-18.748-.069a5.39,5.39,0,0,0,.354,2.857c-.715.172-1.366.416-2.139.534a7.762,7.762,0,0,1-.473-3.322h-11.275c1.876,14.735,10.454,22.772,22.55,27.3.226-.147-.086-.151-.118-.177a26.263,26.263,0,0,1-6.947-10.271c.728-.264,1.333-.643,2.08-.888a29.846,29.846,0,0,0,5.695,8.3,14.9,14.9,0,0,0,9.2,4.807v-12.76a17.523,17.523,0,0,1,2.318.064c.036,4.2-.08,8.544.056,12.638,7.8-1.3,11.445-6.744,14.244-13.053.723.381,1.5.711,2.195,1.131A41.031,41.031,0,0,1,6524.43,5134.5Z" fill="#75aecc"/>
      <path id="Path_150" data-name="Path 150" d="M6498.2,5116.467c1.9.163,1.549,2.569,1.546,4.632h-2.793c-.323-1.1.421-2.841-.534-3.2-.583-.226-1.413.16-2.313,0-.142.939-.019,2.152-.062,3.2a14.441,14.441,0,0,1-2.909-.122c-.325-.233-.173-.732-.173-1.071v-8.426a.158.158,0,0,1,.116-.173c3.75.189,8.388-1.026,8.31,2.846A2.884,2.884,0,0,1,6498.2,5116.467Zm-2.075-1.6c.88-.938-.747-1.769-2.081-1.426v1.666C6494.857,5115.03,6495.749,5115.269,6496.128,5114.865Z" fill="#75aecc"/>
      <path id="Path_151" data-name="Path 151" d="M6508.408,5111.307v2.012h-4.334a10.852,10.852,0,0,0-.055,1.786h3.794v1.957h-3.794v2.02c1.387.131,3.027.016,4.511.054v1.963H6500.7c.035-3.243-.08-6.645.058-9.792Z" fill="#75aecc"/>
      <path id="Path_152" data-name="Path 152" d="M6510.073,5111.307h3.028v7.595c1.3.177,3.024-.059,4.328.117v2.016c-2.352.139-4.961.021-7.415.064C6510.053,5117.856,6509.934,5114.454,6510.073,5111.307Z" fill="#75aecc"/>
      <path id="Path_153" data-name="Path 153" d="M6518.261,5111.307h3.029v9.792h-3.09C6518.243,5117.856,6518.12,5114.454,6518.261,5111.307Z" fill="#75aecc"/>
      <path id="Path_154" data-name="Path 154" d="M6530.957,5111.307v2.012h-4.568a10.112,10.112,0,0,0-.063,1.786h3.8v2.137h-3.739a11.4,11.4,0,0,0-.063,1.894h4.751v1.963h-7.83c.039-3.243-.083-6.645.062-9.792Z" fill="#75aecc"/>
      <path id="Path_155" data-name="Path 155" d="M6539.683,5111.307v2.072h-4.275v2.023c.95.143,2.154.016,3.21.058v2.022h-3.145c-.142,1.063-.025,2.388-.065,3.553-.989.139-2.235.023-3.325.064-.09-3.129-.09-6.668,0-9.792Z" fill="#75aecc"/>
    </g>
  </g>
</svg>
