<svg xmlns="http://www.w3.org/2000/svg" width="406.227" height="128.911" viewBox="0 0 406.227 128.911">
  <g id="Group_94" data-name="Group 94" transform="translate(-2967.773 -5005.381)">
    <path id="Path_274" data-name="Path 274" d="M3323.882,5074.192q1.485-3.368,2.856-6.043t3.17-6.064q1.8-3.385,3.912-6.9,3.244-5.7,5.729-9.179a68.456,68.456,0,0,1,4.213-5.439,15.912,15.912,0,0,1,2.8-2.656,7.632,7.632,0,0,1,1.482-.831c.013.21.015.545.009,1s-.058,1.08-.151,1.86a31.922,31.922,0,0,1-.472,3.518q-.359,1.926-.742,4.275l-.9,4.39q-.55,3.1-.956,5.981a46.555,46.555,0,0,0-.464,5.368,19.156,19.156,0,0,0,.383,4.524,7.565,7.565,0,0,0,1.8,3.537q2.385,2.71,6.914,2.433,4.109-.253,8.319-4a41.051,41.051,0,0,0,6.13-6.93q1.265-1.769,2.325-3.474t1.82-3.072q.762-1.367,1.188-2.188a4.279,4.279,0,0,0,.419-.924,3.263,3.263,0,0,0,.169-2.443,2.884,2.884,0,0,0-1.592-1.806,3.253,3.253,0,0,0-2.442-.167,2.878,2.878,0,0,0-1.8,1.59,29.505,29.505,0,0,1-1.465,2.839q-.72,1.209-1.681,2.747t-2.131,3.2a31.978,31.978,0,0,1-5.287,6.033q-2.562,2.166-4.353,2.276a5.7,5.7,0,0,1-1.007-.045,1.489,1.489,0,0,1-.81-.268,2.358,2.358,0,0,1-.435-1.083,14.166,14.166,0,0,1-.145-3.216,72.216,72.216,0,0,1,1.409-9.815q.138-1.17.341-2.189t.454-2.089q1.094-6.3,1.436-10.24a8.255,8.255,0,0,0-1.6-6.246,5.621,5.621,0,0,0-1.72-1.322,5.687,5.687,0,0,0-3.044-.5q-4.635.283-10.429,7.512-1.47,1.888-3.027,4.1t-3.192,4.847q.675-2.79,1.508-5.591t1.706-5.815a2.476,2.476,0,0,0-.247-2.311,3.8,3.8,0,0,0-1.893-1.576,2.678,2.678,0,0,0-2.416.254,3.782,3.782,0,0,0-1.576,1.893q-2.182,7.536-4.087,14.42t-3.33,12.1q-1.425,5.217-3.045,11.554a2.978,2.978,0,0,0,.191,2.262,3.1,3.1,0,0,0,1.732,1.533,2.786,2.786,0,0,0,1.283.238,3.214,3.214,0,0,0,2.74-1.859m-7.481-1.34q1.5-1.361,3.088-3.1a40.192,40.192,0,0,0,3.142-3.947q1.265-1.767,2.377-3.476t1.873-3.075q.762-1.369,1.241-2.192a4.142,4.142,0,0,0,.471-.927,3.14,3.14,0,0,0,.171-2.39,3.168,3.168,0,0,0-4.035-2.027,2.875,2.875,0,0,0-1.8,1.592q.006.1-1.468,2.785a55.934,55.934,0,0,1-3.915,6,34.692,34.692,0,0,1-5.392,6.041,8.245,8.245,0,0,1-4.459,2.281,2.417,2.417,0,0,1-1.28-.186,2.028,2.028,0,0,1-.667-.541q-1.251-1.4-1.573-5.826a49.155,49.155,0,0,1,1.3-12.451,2.881,2.881,0,0,0-.4-2.2,3.656,3.656,0,0,0-1.835-1.474,2.983,2.983,0,0,0-2.261.191,3.1,3.1,0,0,0-1.532,1.733,55.346,55.346,0,0,1-5.92,12.1,46.942,46.942,0,0,1-5.208,6.452,14.479,14.479,0,0,1-4.773,3.2,5.585,5.585,0,0,1-3.256.358q-1.83-.521-2.428-3.393a17.2,17.2,0,0,1,.31-7.051,30.324,30.324,0,0,1,3.127-8.493,34.955,34.955,0,0,1,5.312-7.356,17.723,17.723,0,0,1,5.2-4.071,6.711,6.711,0,0,1,3.17-.882q.1-.006.335.3a3.45,3.45,0,0,1,.22.991,11.127,11.127,0,0,1-.112,2.491,2.857,2.857,0,0,0,.566,2.345,2.894,2.894,0,0,0,2.081,1.194,2.852,2.852,0,0,0,2.344-.566,2.9,2.9,0,0,0,1.2-2.082,13.355,13.355,0,0,0-.013-5.392,7.852,7.852,0,0,0-1.572-3.235,6.1,6.1,0,0,0-2.107-1.616,14.029,14.029,0,0,0-1.731-.634,11.012,11.012,0,0,0-6.795,1.261,26.463,26.463,0,0,0-7.272,5.521,40.3,40.3,0,0,0-6.39,8.745,37.894,37.894,0,0,0-3.765,10.17q-1.385,6.746.162,11.3a11.587,11.587,0,0,0,2.529,4.181,9.1,9.1,0,0,0,3.9,2.406,10.634,10.634,0,0,0,7.05-.537,20.781,20.781,0,0,0,7.016-4.553q1.395-1.356,2.778-2.972a38.178,38.178,0,0,0,2.641-3.493,13.751,13.751,0,0,0,3,7.536,8.038,8.038,0,0,0,7.045,2.847q4-.245,8.325-3.893m-83.412,1.665a5.607,5.607,0,0,1-3.255.357q-1.831-.522-2.428-3.394a17.2,17.2,0,0,1,.31-7.051,30.3,30.3,0,0,1,3.127-8.492,34.993,34.993,0,0,1,5.312-7.357,17.766,17.766,0,0,1,5.194-4.071,6.728,6.728,0,0,1,3.172-.882q.1-.006.335.3a3.466,3.466,0,0,1,.219.991,11.177,11.177,0,0,1-.113,2.493,2.859,2.859,0,0,0,.568,2.344,2.893,2.893,0,0,0,2.081,1.195,2.325,2.325,0,0,0,1.883-.327q-.168.751-.312,1.817c-.133.15-.2.259-.192.328a55.247,55.247,0,0,1-5.92,12.1,46.72,46.72,0,0,1-5.208,6.451,14.471,14.471,0,0,1-4.773,3.2m41.718-19.682a3.072,3.072,0,0,0-1.8,1.644q-.66,1.308-1.524,2.736-.772,1.212-1.678,2.8a29.207,29.207,0,0,1-2.081,3.141,33.179,33.179,0,0,1-5.233,6.031,8.047,8.047,0,0,1-4.408,2.278,3.269,3.269,0,0,1-1.76-.263,2.1,2.1,0,0,1-.838-.741,7.806,7.806,0,0,1-1.112-2.628,20.93,20.93,0,0,1-.278-6.276,88.193,88.193,0,0,1,2.707-16.239q1.766-7.4,4.689-16.676t7.175-20.953a3.071,3.071,0,0,0-.095-2.427,3.028,3.028,0,0,0-1.848-1.684,2.8,2.8,0,0,0-2.369.145,3.272,3.272,0,0,0-1.636,1.792q-1.263,3.567-2.748,7.782t-3.053,8.857q-1.566,4.644-3.014,9.489t-2.638,9.574a6.924,6.924,0,0,0-1.066-2.737,9,9,0,0,0-1.588-1.754,5.2,5.2,0,0,0-1.643-.957,10.674,10.674,0,0,0-1.238-.348,11.013,11.013,0,0,0-6.794,1.262,26.489,26.489,0,0,0-7.274,5.521,40.353,40.353,0,0,0-6.389,8.744,37.924,37.924,0,0,0-3.765,10.17q-1.385,6.747.162,11.3a11.577,11.577,0,0,0,2.53,4.181,9.091,9.091,0,0,0,3.9,2.4q.855.161,1.655.269a8.932,8.932,0,0,0,1.748.052,11.635,11.635,0,0,0,3.647-.858,20.773,20.773,0,0,0,7.017-4.553q1.5-1.464,2.926-3.14a43.2,43.2,0,0,0,2.788-3.66,16.55,16.55,0,0,0,.881,4.017,15.424,15.424,0,0,0,1.566,3.13,11.38,11.38,0,0,0,2.954,2.516,8.674,8.674,0,0,0,5.189,1q4-.245,8.325-3.892a45.206,45.206,0,0,0,6.125-7.037q1.263-1.769,2.323-3.474t1.821-3.072q.762-1.367,1.188-2.187a4.228,4.228,0,0,0,.419-.925,3.255,3.255,0,0,0,.168-2.441,2.875,2.875,0,0,0-1.591-1.807,3.081,3.081,0,0,0-2.437-.115m-58.991,24.174q1.5-1.36,3.089-3.1a40.133,40.133,0,0,0,3.141-3.947q1.263-1.765,2.377-3.476t1.874-3.075q.759-1.368,1.24-2.191a4.191,4.191,0,0,0,.472-.928,3.149,3.149,0,0,0,.17-2.39,3.168,3.168,0,0,0-4.034-2.026,2.877,2.877,0,0,0-1.806,1.591q.006.106-1.468,2.786a56.082,56.082,0,0,1-3.915,6,34.691,34.691,0,0,1-5.391,6.041,8.266,8.266,0,0,1-4.46,2.282,2.4,2.4,0,0,1-1.28-.187,2.048,2.048,0,0,1-.668-.54q-1.248-1.4-1.571-5.825a49.088,49.088,0,0,1,1.3-12.452,2.881,2.881,0,0,0-.4-2.2,3.652,3.652,0,0,0-1.835-1.473,2.983,2.983,0,0,0-2.261.19,3.1,3.1,0,0,0-1.532,1.734,55.358,55.358,0,0,1-5.92,12.1,46.86,46.86,0,0,1-5.208,6.452,14.527,14.527,0,0,1-4.773,3.2,5.6,5.6,0,0,1-3.255.357q-1.831-.522-2.428-3.394a17.19,17.19,0,0,1,.308-7.051,30.34,30.34,0,0,1,3.129-8.492,34.955,34.955,0,0,1,5.311-7.357,17.765,17.765,0,0,1,5.195-4.071,6.719,6.719,0,0,1,3.17-.882c.07,0,.182.1.335.3a3.41,3.41,0,0,1,.22.991,11.087,11.087,0,0,1-.112,2.493,2.858,2.858,0,0,0,.566,2.344,2.9,2.9,0,0,0,2.081,1.194,2.85,2.85,0,0,0,2.344-.566,2.9,2.9,0,0,0,1.194-2.083,13.316,13.316,0,0,0-.012-5.391,7.863,7.863,0,0,0-1.571-3.235,6.084,6.084,0,0,0-2.108-1.616,14.5,14.5,0,0,0-1.731-.635,11.009,11.009,0,0,0-6.793,1.262,26.467,26.467,0,0,0-7.275,5.521,40.322,40.322,0,0,0-6.389,8.744,37.916,37.916,0,0,0-3.766,10.17q-1.383,6.747.164,11.3a11.559,11.559,0,0,0,2.528,4.181,9.094,9.094,0,0,0,3.9,2.405,10.623,10.623,0,0,0,7.051-.537,20.775,20.775,0,0,0,7.015-4.553q1.4-1.354,2.778-2.972a37.9,37.9,0,0,0,2.641-3.492,13.737,13.737,0,0,0,3,7.535,8.037,8.037,0,0,0,7.045,2.848q4-.246,8.324-3.894m-115.033,10.1a2.884,2.884,0,0,0,1.081-1.335q1.59-3.374,2.908-6.046t3.171-6.063q1.854-3.39,3.859-6.9,2.966-5.043,5.25-8.357a64.492,64.492,0,0,1,4.009-5.322,25.544,25.544,0,0,1,2.834-2.922,14.267,14.267,0,0,1,1.719-1.268,12.186,12.186,0,0,1,.258,1.623c.08.735.122,1.721.128,2.953s-.043,2.751-.144,4.556-.321,3.985-.657,6.543q-.341,3.089-.8,5.918t-.9,5.184q-.439,2.354-.756,4.063t-.49,2.357a2.819,2.819,0,0,0,.244,2.259,3.318,3.318,0,0,0,1.785,1.529,2.975,2.975,0,0,0,2.324-.035,2.877,2.877,0,0,0,1.587-1.684q1.592-3.374,2.908-6.046t3.171-6.064q1.854-3.389,3.859-6.9,3.351-5.7,5.834-9.187a68.5,68.5,0,0,1,4.213-5.439,17.236,17.236,0,0,1,2.745-2.652,6.933,6.933,0,0,1,1.429-.829c.018.282.04.632.065,1.055a11.01,11.01,0,0,1-.1,1.8q-.219,1.6-.578,3.524t-.742,4.276l-.79,4.384q-.549,3.1-1.007,5.984a40.315,40.315,0,0,0-.518,5.371,17.286,17.286,0,0,0,.435,4.52,8.621,8.621,0,0,0,1.75,3.542,8.2,8.2,0,0,0,6.914,2.431q4-.243,8.325-3.892a45.136,45.136,0,0,0,6.125-7.037q1.263-1.766,2.324-3.473t1.82-3.073q.762-1.366,1.188-2.186a7.971,7.971,0,0,1,.524-.932,3.187,3.187,0,1,0-5.768-2.713q-.661,1.309-1.524,2.736-.774,1.214-1.679,2.8t-2.075,3.246a31.4,31.4,0,0,1-5.237,5.977,8.118,8.118,0,0,1-4.409,2.226,4.73,4.73,0,0,1-.954-.047,1.438,1.438,0,0,1-.758-.27,2.707,2.707,0,0,1-.488-1.081,11.645,11.645,0,0,1-.2-3.214,40.4,40.4,0,0,1,.477-4.311q.381-2.4.932-5.5l.8-4.278q1.2-6.311,1.541-10.245a8.259,8.259,0,0,0-1.6-6.248,7.456,7.456,0,0,0-1.825-1.316,5.678,5.678,0,0,0-3.044-.5,9.19,9.19,0,0,0-4.9,1.992,33.936,33.936,0,0,0-5.529,5.519q-2.064,2.561-4.388,6.032t-4.8,7.854l-.963,1.54a72.216,72.216,0,0,0,.643-8.5,43.348,43.348,0,0,0-.289-5.587,14.9,14.9,0,0,0-.792-3.441,7.7,7.7,0,0,0-1.07-1.943,7.506,7.506,0,0,0-1.937-1.415,4.459,4.459,0,0,0-2.3-.442,9.194,9.194,0,0,0-4.9,1.991,33.95,33.95,0,0,0-5.529,5.521q-1.368,1.882-2.974,4.094t-3.245,4.851l3.22-11.3a2.8,2.8,0,0,0-.2-2.42,3.493,3.493,0,0,0-1.945-1.574,2.978,2.978,0,0,0-2.361.3,3.053,3.053,0,0,0-1.526,1.839q-2.183,7.536-4.087,14.419t-3.33,12.1q-1.425,5.217-2.288,8.388t-.856,3.277a2.706,2.706,0,0,0,.24,2.206,3.375,3.375,0,0,0,1.781,1.477,2.79,2.79,0,0,0,1.285.239,3.133,3.133,0,0,0,1.553-.518m-6.3-2.681q1.5-1.362,3.088-3.1a40.04,40.04,0,0,0,3.142-3.947q1.265-1.766,2.377-3.476t1.873-3.074q.762-1.37,1.241-2.192a4.169,4.169,0,0,0,.471-.928,3.137,3.137,0,0,0,.172-2.389,3.171,3.171,0,0,0-4.036-2.027,2.878,2.878,0,0,0-1.805,1.591q.006.106-1.468,2.786a55.981,55.981,0,0,1-3.915,6,34.71,34.71,0,0,1-5.392,6.041,8.257,8.257,0,0,1-4.458,2.282,2.409,2.409,0,0,1-1.281-.187,2.014,2.014,0,0,1-.667-.54q-1.251-1.4-1.573-5.825a49.193,49.193,0,0,1,1.3-12.452,2.877,2.877,0,0,0-.4-2.2,3.645,3.645,0,0,0-1.833-1.473,3,3,0,0,0-2.262.19,3.105,3.105,0,0,0-1.533,1.734,55.306,55.306,0,0,1-5.919,12.1,46.9,46.9,0,0,1-5.208,6.452,14.524,14.524,0,0,1-4.773,3.2,5.6,5.6,0,0,1-3.256.357q-1.83-.521-2.428-3.394a17.217,17.217,0,0,1,.31-7.051,30.332,30.332,0,0,1,3.127-8.492,34.993,34.993,0,0,1,5.312-7.357,17.741,17.741,0,0,1,5.2-4.071,6.722,6.722,0,0,1,3.171-.882c.068,0,.18.1.335.3a3.439,3.439,0,0,1,.219.991,11.2,11.2,0,0,1-.112,2.493,2.861,2.861,0,0,0,.566,2.344,2.892,2.892,0,0,0,2.082,1.194,2.854,2.854,0,0,0,2.344-.566,2.909,2.909,0,0,0,1.194-2.083,13.315,13.315,0,0,0-.013-5.391,7.838,7.838,0,0,0-1.572-3.234,6.085,6.085,0,0,0-2.107-1.617,14.5,14.5,0,0,0-1.731-.635,11.02,11.02,0,0,0-6.794,1.262,26.457,26.457,0,0,0-7.273,5.521,40.327,40.327,0,0,0-6.39,8.744,37.9,37.9,0,0,0-3.765,10.17q-1.385,6.747.162,11.305a11.578,11.578,0,0,0,2.529,4.182,9.083,9.083,0,0,0,3.9,2.4,10.625,10.625,0,0,0,7.05-.536,20.77,20.77,0,0,0,7.016-4.554q1.4-1.354,2.778-2.972a37.9,37.9,0,0,0,2.641-3.492,13.755,13.755,0,0,0,3,7.535,8.036,8.036,0,0,0,7.045,2.848q4-.246,8.325-3.893m7.022,10.2a3.288,3.288,0,0,0-2.2,1.139q-1,.906-2.1,2.032-1.109.913-2.511,2.162a30.128,30.128,0,0,1-3.333,2.531,44.29,44.29,0,0,1-21.744,7.462q-9.268.567-18.985-7.933a73.226,73.226,0,0,1-8.747-9.034q-4.17-5.084-8.184-10.233-3.675-4.745-7.156-8.973a58.935,58.935,0,0,0-7.053-7.288,29.506,29.506,0,0,0-3.768-2.836,100.86,100.86,0,0,0,11.506-5.463,67.8,67.8,0,0,0,9.447-6.288,38.832,38.832,0,0,0,7.477-7.383,25.623,25.623,0,0,0,3.75-6.944,17.316,17.316,0,0,0,1-6.194,22.9,22.9,0,0,0-.8-5.239,16.164,16.164,0,0,0-5.307-8.135,22.221,22.221,0,0,0-9.624-4.382,46.964,46.964,0,0,0-15.875-.3,84.277,84.277,0,0,0-8.306,1.618q-4.323,1.057-8.669,2.592-4.242,1.529-8.2,3.41t-7.532,3.9a50.332,50.332,0,0,0-11.787,9.5,22.958,22.958,0,0,0-3.212,4.532,15.2,15.2,0,0,0-1.5,4.057,10.649,10.649,0,0,0-.162,3.394,16.1,16.1,0,0,0,.592,2.766,2.871,2.871,0,0,0,1.591,1.806,3.07,3.07,0,0,0,4.241-1.528,2.721,2.721,0,0,0,.068-2.331,5.657,5.657,0,0,1,.408-4.572,19.207,19.207,0,0,1,2.665-3.97,42.971,42.971,0,0,1,10.284-8.136,85.417,85.417,0,0,1,14.595-6.815,73.2,73.2,0,0,1,16.036-3.995,42.268,42.268,0,0,1,13.331.191q8.468,1.914,10.232,8.256a12.039,12.039,0,0,1-1.143,9.851,31.44,31.44,0,0,1-8.262,9.229,71.853,71.853,0,0,1-13.2,8.051,118.96,118.96,0,0,1-15.947,6.315,1.481,1.481,0,0,0-.626.145,2.9,2.9,0,0,0-1.808,1.538,3.232,3.232,0,0,0,1.369,4.251,2.964,2.964,0,0,0,2.392.224.408.408,0,0,0,.26-.069.424.424,0,0,1,.261-.069,12.2,12.2,0,0,1,1.679-.208,6.707,6.707,0,0,1,2.185.29,13.08,13.08,0,0,1,2.769,1.205,20.446,20.446,0,0,1,3.433,2.54,54.385,54.385,0,0,1,6.547,6.789q3.311,4.028,6.761,8.575,4.243,5.449,8.582,10.684a79.684,79.684,0,0,0,9.248,9.48q11.828,10.167,23.52,9.453a47.245,47.245,0,0,0,12.947-2.642,55.129,55.129,0,0,0,12.1-6.08,44.205,44.205,0,0,0,6.659-5.218q2.291-2.31,2.487-2.532a3.306,3.306,0,0,0,.705-2.316,2.767,2.767,0,0,0-1.08-2.1,2.918,2.918,0,0,0-2.319-.756m-101.062-64.774a3.533,3.533,0,0,0-1.579,1.841q-.186.437-1.147,3.719t-2.393,8.4q-1.433,5.11-3,11.5t-2.857,12.917q-1.293,6.531-2.025,12.708a61.443,61.443,0,0,0-.448,10.812,3.067,3.067,0,0,0,3.353,2.968,3.13,3.13,0,0,0,2.156-1.031,2.98,2.98,0,0,0,.81-2.323,57.113,57.113,0,0,1,.475-10.392q.744-5.966,2.047-12.339t2.875-12.6q1.575-6.229,2.911-11.176t2.311-8.019q.975-3.073.969-3.179a2.8,2.8,0,0,0-.2-2.42,3.545,3.545,0,0,0-1.841-1.578,2.793,2.793,0,0,0-2.419.2" fill="#75aecc"/>
    <path id="Path_275" data-name="Path 275" d="M3087.356,5113.455l-2.321,8.727,5.574-.363Zm7.541,19.462-1.793-4.668-9.846.639-1.264,4.868-8.226.536,9.563-32.765,6.068-.394,13.726,31.249Z" fill="#fff"/>
    <path id="Path_276" data-name="Path 276" d="M3118.2,5131.674a11.715,11.715,0,0,1-9.13-2.928c-3.493-3.07-3.759-7.159-4.11-12.555s-.618-9.483,2.448-12.98a11.717,11.717,0,0,1,8.676-4.086c6.068-.4,11.141,2.661,12.771,9.642l-8,.52c-.616-1.765-1.708-3.318-4.315-3.148a3.828,3.828,0,0,0-3.013,1.548c-.659.991-1.081,2.147-.7,7.993s.948,6.934,1.73,7.831a3.826,3.826,0,0,0,3.189,1.149c2.6-.169,3.488-1.852,3.869-3.685l8-.521c-.711,7.137-5.346,10.825-11.415,11.22" fill="#fff"/>
    <path id="Path_277" data-name="Path 277" d="M3148.583,5104.326l1.626,24.994-7.866.512-1.627-24.994-7.869.513-.457-7.014,23.6-1.536.457,7.014Z" fill="#fff"/>
    <rect id="Rectangle_78" data-name="Rectangle 78" width="7.883" height="32.074" transform="translate(3161.608 5096.436) rotate(-3.723)" fill="#fff"/>
    <path id="Path_278" data-name="Path 278" d="M3191.8,5102.643a4.26,4.26,0,0,0-6.3.409c-.656.991-1.037,2.1-.656,7.943s.9,6.847,1.677,7.746a4.172,4.172,0,0,0,6.295-.41c.656-.991,1.04-2.056.659-7.9s-.9-6.892-1.679-7.789m7.1,20.259a13.082,13.082,0,0,1-17.8,1.159c-3.493-3.071-3.759-7.159-4.111-12.555s-.616-9.484,2.45-12.981a13.08,13.08,0,0,1,17.8-1.157c3.494,3.069,3.759,7.158,4.111,12.553s.617,9.485-2.449,12.981" fill="#fff"/>
    <path id="Path_279" data-name="Path 279" d="M3226.947,5124.327l-11.3-15.428,1.047,16.1-7.867.511-2.081-32.007,6.877-.448,11.3,15.425-1.046-16.092,7.869-.513,2.083,32.007Z" fill="#fff"/>
    <path id="Path_280" data-name="Path 280" d="M3263.242,5096.911l-4.452.289.422,6.472,4.451-.289a3.248,3.248,0,1,0-.421-6.472m1.243,13.509-4.814.313.742,11.417-7.865.511-2.083-32.007,12.681-.825c7.1-.462,11.25,4.323,11.591,9.583s-3.151,10.546-10.252,11.008" fill="#fff"/>
    <path id="Path_281" data-name="Path 281" d="M3281.787,5120.759l-2.083-32.007,7.867-.511,1.626,24.993,13.444-.875.457,7.014Z" fill="#fff"/>
    <path id="Path_282" data-name="Path 282" d="M3320.683,5098.276l-2.322,8.728,5.574-.363Zm7.54,19.462-1.793-4.67-9.845.641-1.264,4.868-8.226.536,9.562-32.764,6.069-.4,13.726,31.249Z" fill="#fff"/>
    <path id="Path_283" data-name="Path 283" d="M3359.534,5115.7l-11.3-15.428,1.047,16.1-7.867.511-2.081-32.007,6.877-.448,11.3,15.425-1.047-16.092,7.869-.511,2.083,32.005Z" fill="#fff"/>
  </g>
</svg>
