<svg xmlns="http://www.w3.org/2000/svg" width="95.154" height="99.909" viewBox="0 0 95.154 99.909">
  <g id="Group_312" data-name="Group 312" transform="translate(-1238.545 -3258.979)">
    <circle id="Ellipse_70" data-name="Ellipse 70" cx="47.577" cy="47.577" r="47.577" transform="translate(1238.545 3258.979)" fill="#f2f2f2"/>
    <rect id="Rectangle_214" data-name="Rectangle 214" width="55.146" height="66.462" transform="translate(1261.637 3267.551)" fill="#96a782"/>
    <path id="Path_745" data-name="Path 745" d="M1261.637,3267.551a6.3,6.3,0,0,0-6.3,6.3v66.383l7.078-6.218V3267.63A6.117,6.117,0,0,0,1261.637,3267.551Z" fill="#819069"/>
    <path id="Path_746" data-name="Path 746" d="M1261.637,3267.551a6.3,6.3,0,0,0-6.3,6.3v66.383l6.3-6.3v.079h55.146v-66.462Z" fill="none" stroke="#636776" stroke-linecap="round" stroke-linejoin="round" stroke-width="2.04"/>
    <path id="Path_747" data-name="Path 747" d="M1316.783,3334.013h-54.365a6.117,6.117,0,0,0-.781-.079,6.3,6.3,0,1,0,0,12.594h53.591C1312.45,3342.347,1314.929,3337.307,1316.783,3334.013Z" fill="#e8e3d9"/>
    <path id="Path_748" data-name="Path 748" d="M1316.783,3334.013l-55.146-.079a6.3,6.3,0,1,0,0,12.594h53.591C1312.45,3342.347,1314.929,3337.307,1316.783,3334.013Z" fill="none" stroke="#636776" stroke-linecap="round" stroke-linejoin="round" stroke-width="2.04"/>
    <rect id="Rectangle_215" data-name="Rectangle 215" width="44.599" height="56.259" rx="3.352" transform="translate(1267.131 3272.215)" fill="#819069"/>
    <path id="Path_749" data-name="Path 749" d="M1295.26,3340.231v17.636l5.484-3.556,5.1,3.17v-17.25Z" fill="#efd08d"/>
    <path id="Path_750" data-name="Path 750" d="M1295.26,3340.231v17.636l5.484-3.556,5.1,3.17v-17.25Z" fill="none" stroke="#636776" stroke-linecap="round" stroke-linejoin="round" stroke-width="2.04"/>
  </g>
</svg>
