<svg xmlns="http://www.w3.org/2000/svg" width="30" height="30" viewBox="0 0 30 30">
  <path id="Path_15" data-name="Path 15" d="M68.277,59.106A4.145,4.145,0,0,0,65.1,57.7a4.854,4.854,0,0,0-3.166,1.706l-1.445,1.446L42.278,79.06l-.012.016c-.008.009-.014.019-.021.028a.383.383,0,0,0-.056.1.14.14,0,0,0-.009.017l-2.475,7.955a.415.415,0,0,0,.5.5L48.16,85.2c.006,0,.01-.007.016-.009a.386.386,0,0,0,.1-.057.292.292,0,0,0,.028-.021l.016-.012L66.532,66.9l1.445-1.445a4.855,4.855,0,0,0,1.707-3.166A4.147,4.147,0,0,0,68.277,59.106ZM43.744,85.741l-2.1-2.1L42.836,79.8l1.682.323.391,2.033a.4.4,0,0,0,.317.317l2.032.39.323,1.682ZM66.249,66.05l-4.915-4.916.894-.894,4.915,4.916Z" transform="translate(-39.689 -57.695)" fill="#656b8d"/>
</svg>
